# StarFox 1.0 model: D95C

v 0.000000000000 -0.156250000000 -0.937500000000
v 0.000000000000 -0.312500000000 -0.468750000000
v 0.000000000000 -0.312500000000 0.468750000000
v 0.000000000000 -0.156250000000 0.937500000000
v -0.234375000000 0.000000000000 -0.937500000000
v 0.234375000000 0.000000000000 -0.937500000000
v -0.078125000000 0.156250000000 -0.937500000000
v 0.078125000000 0.156250000000 -0.937500000000
v 0.125000000000 0.656250000000 -0.859375000000
v -0.125000000000 0.656250000000 -0.859375000000
v 0.312500000000 0.687500000000 -0.859375000000
v -0.312500000000 0.687500000000 -0.859375000000
v -0.078125000000 0.703125000000 -0.859375000000
v 0.078125000000 0.703125000000 -0.859375000000
v -0.312500000000 0.734375000000 -0.859375000000
v 0.312500000000 0.734375000000 -0.859375000000
v -0.125000000000 0.781250000000 -0.859375000000
v 0.125000000000 0.781250000000 -0.859375000000
v -0.078125000000 0.625000000000 -0.625000000000
v 0.078125000000 0.625000000000 -0.625000000000
v 0.468750000000 0.000000000000 -0.468750000000
v -0.468750000000 0.000000000000 -0.468750000000
v 0.156250000000 0.312500000000 -0.468750000000
v -0.156250000000 0.312500000000 -0.468750000000
v 0.468750000000 0.000000000000 0.468750000000
v -0.468750000000 0.000000000000 0.468750000000
v -0.156250000000 0.312500000000 0.468750000000
v 0.156250000000 0.312500000000 0.468750000000
v -0.234375000000 0.000000000000 0.937500000000
v 0.234375000000 0.000000000000 0.937500000000
v -0.078125000000 0.156250000000 0.937500000000
v 0.078125000000 0.156250000000 0.937500000000
# 32 vertices

f  24 23 20 19
f  27 28 23 24
f  23 28 25 21
f  22 26 27 24
f  24 19 7
f  7 19 13
f  9 11 16 18
f  24 7 5 22
f  17 15 12 10
f  21 6 8 23
f  8 20 23
f  14 20 8
f  29 4 30 32 31
f  28 27 31 32
f  28 32 30 25
f  26 29 31 27
f  4 29 26 3
f  3 26 22 2
f  14 13 19 20
f  2 22 5 1
f  3 25 30 4
f  1 6 21 2
f  2 21 25 3
# 23 faces
