# StarFox 1.0 model: BAA0

v 0.000000000000 0.000000000000 -0.468750000000
v 0.000000000000 0.234375000000 -0.468750000000
v 0.000000000000 0.078125000000 -0.156250000000
v 0.000000000000 0.000000000000 0.468750000000
v -0.187500000000 -0.234375000000 -0.468750000000
v 0.187500000000 -0.234375000000 -0.468750000000
v -0.093750000000 -0.078125000000 -0.156250000000
v 0.093750000000 -0.078125000000 -0.156250000000
# 8 vertices

f  7 3 1
f  8 1 6
f  1 3 8
f  8 7 1
f  4 7 8
f  4 3 7
f  8 3 4
f  6 1 8
f  2 1 3
f  7 1 5
f  3 1 2
f  5 1 7
# 12 faces
