# StarFox 1.0 model: E430

v 0.000000000000 1.171875000000 0.000000000000
v -0.234375000000 0.468750000000 -0.468750000000
v 0.234375000000 0.468750000000 -0.468750000000
v 0.156250000000 -1.171875000000 -0.312500000000
v -0.156250000000 -1.171875000000 -0.312500000000
v -0.312500000000 -1.171875000000 0.000000000000
v 0.312500000000 -1.171875000000 0.000000000000
v -0.468750000000 0.468750000000 0.000000000000
v 0.468750000000 0.468750000000 0.000000000000
v -0.156250000000 -1.171875000000 0.312500000000
v 0.156250000000 -1.171875000000 0.312500000000
v 0.234375000000 0.468750000000 0.468750000000
v -0.234375000000 0.468750000000 0.468750000000
# 13 vertices

f  10 11 12 13
f  10 13 8 6
f  7 9 12 11
f  1 12 9
f  8 13 1
f  1 13 12
f  2 3 4 5
f  6 8 2 5
f  4 3 9 7
f  9 3 1
f  1 2 8
f  3 2 1
# 12 faces
